PH_EFF_TRIGGER_Uncertainty 0.974 -0.968
PRW_DATASF 0.942 -0.698
PH_EFF_ID_Uncertainty 1.372 -1.363
PH_EFF_ISO_Uncertainty 1.383 -1.374
EG_SCALE_ALL 0.997 -1.082
EG_RESOLUTION_ALL 0 0.222
JET_BJES_Response 2.540 -2.785
JET_EtaIntercalibration_Modelling 1.735 -1.737
JET_EtaIntercalibration_NonClosure_2018data 0.611 -0.685
JET_EtaIntercalibration_TotalStat 0.454 -0.683
JET_Flavor_Composition 1.207 -1.119
JET_Flavor_Response -0.645 0.449
JET_Pileup_OffsetMu 1.056 -1.056
JET_Pileup_OffsetNPV 1.627 -1.889
JET_Pileup_PtTerm 0 -0.748
JET_Pileup_RhoTopology 4.816 -4.285
JET_fJvtEfficiency 0.383 -0.381
JET_EffectiveNP_Detector1 0 -0.143
JET_EffectiveNP_Mixed1 0.184 -0.357
JET_EffectiveNP_Mixed2 -0.421 0
JET_EffectiveNP_Mixed3 0.146 0
JET_EffectiveNP_Modelling1 2.166 -2.589
JET_EffectiveNP_Modelling3 -0.133 0
JET_EffectiveNP_Statistical2 -0.148 0
JET_JER_EffectiveNP_1 1.484 0
JET_JER_EffectiveNP_2 1.074 0
JET_JER_EffectiveNP_3 -0.504 1.442
JET_JER_EffectiveNP_4 -0.416 0.968
JET_JER_EffectiveNP_5 0 1.477
JET_JER_EffectiveNP_6 0 1.098
JET_JER_EffectiveNP_8 0 0.450
JET_JER_EffectiveNP_9 0.588 0
JET_JER_EffectiveNP_10 0 0.361
JET_JER_EffectiveNP_11 -0.678 0
JET_JER_EffectiveNP_12restTerm 0.584 0
FT_EFF_Eigen_B_0 -2.154 2.172
FT_EFF_Eigen_B_1 -1.295 1.303
FT_EFF_Eigen_C_0 -0.353 0.370
FT_EFF_Eigen_Light_0 -0.366 0.369
